<?xml version="1.0" encoding="UTF-8" standalone="no"?>
<!-- Created with Inkscape (http://www.inkscape.org/) -->

<svg
   xmlns:dc="http://purl.org/dc/elements/1.1/"
   xmlns:cc="http://creativecommons.org/ns#"
   xmlns:rdf="http://www.w3.org/1999/02/22-rdf-syntax-ns#"
   xmlns:svg="http://www.w3.org/2000/svg"
   xmlns="http://www.w3.org/2000/svg"
   xmlns:sodipodi="http://sodipodi.sourceforge.net/DTD/sodipodi-0.dtd"
   xmlns:inkscape="http://www.inkscape.org/namespaces/inkscape"
   width="744.09448819"
   height="1052.3622047"
   id="svg2"
   version="1.1"
   inkscape:version="0.48.2 r9819"
   sodipodi:docname="puzzlie.svg">
  <defs
     id="defs4" />
  <sodipodi:namedview
     id="base"
     pagecolor="#ffffff"
     bordercolor="#666666"
     borderopacity="1.0"
     inkscape:pageopacity="0.0"
     inkscape:pageshadow="2"
     inkscape:zoom="1.3000526"
     inkscape:cx="391.24122"
     inkscape:cy="921.33759"
     inkscape:document-units="px"
     inkscape:current-layer="layer1"
     showgrid="false"
     inkscape:window-width="1366"
     inkscape:window-height="705"
     inkscape:window-x="-8"
     inkscape:window-y="-8"
     inkscape:window-maximized="1" />
  <metadata
     id="metadata7">
    <rdf:RDF>
      <cc:Work
         rdf:about="">
        <dc:format>image/svg+xml</dc:format>
        <dc:type
           rdf:resource="http://purl.org/dc/dcmitype/StillImage" />
        <dc:title />
      </cc:Work>
    </rdf:RDF>
  </metadata>
  <g
     inkscape:label="Layer 1"
     inkscape:groupmode="layer"
     id="layer1">
    <g
       id="g3793"
       transform="matrix(0.11301151,0,0,0.14110433,53.211401,106.78024)"
       style="stroke-width:7.91896622;stroke-miterlimit:4;stroke-dasharray:none">
      <path
         inkscape:connector-curvature="0"
         id="path3781"
         d="m 185.39057,148.25993 51.49317,-40.63381 24.81599,21.67137 55.21557,-40.633806 42.80757,50.115026 1.2408,28.44367 -163.16511,0 -14.26919,1.35446 z"
         style="color:#000000;fill:#ffffff;fill-opacity:1;fill-rule:nonzero;stroke:#000000;stroke-width:7.91896622;stroke-linecap:round;stroke-linejoin:round;stroke-miterlimit:4;stroke-opacity:1;stroke-dasharray:none;stroke-dashoffset:0;marker:none;visibility:visible;display:inline;overflow:visible;enable-background:accumulate" />
      <path
         id="rect3761"
         d="m 178.25,27.03125 0,145.59375 188.96875,0 0,-145.59375 -188.96875,0 z m 13.875,9.8125 161.1875,0 0,125.96875 -161.1875,0 0,-125.96875 z"
         style="color:#000000;fill:#ffffff;fill-opacity:1;fill-rule:nonzero;stroke:#000000;stroke-width:7.91896622;stroke-miterlimit:4;stroke-dasharray:none;marker:none;visibility:visible;display:inline;overflow:visible;enable-background:accumulate"
         inkscape:connector-curvature="0" />
    </g>
    <g
       id="g3757"
       transform="matrix(0.30160401,0,0,0.59064117,487.42663,9.0818944)">
      <rect
         y="49.384335"
         x="81.944847"
         height="162.53523"
         width="159.14908"
         id="rect2985"
         style="color:#000000;fill:#cccccc;fill-opacity:1;fill-rule:nonzero;stroke:none;stroke-width:3;marker:none;visibility:visible;display:inline;overflow:visible;enable-background:accumulate" />
      <rect
         y="187.53928"
         x="81.944847"
         height="24.380285"
         width="159.14908"
         id="rect2987"
         style="color:#000000;fill:#279c27;fill-opacity:1;fill-rule:nonzero;stroke:none;stroke-width:3;marker:none;visibility:visible;display:inline;overflow:visible;enable-background:accumulate" />
    </g>
    <g
       id="g3803"
       transform="matrix(0.50990606,0,0,0.30032602,220.53488,146.21956)">
      <rect
         y="64.960632"
         x="329.13385"
         height="159.82631"
         width="94.134987"
         id="rect3797"
         style="color:#000000;fill:#999999;fill-opacity:1;fill-rule:nonzero;stroke:none;stroke-width:1;marker:none;visibility:visible;display:inline;overflow:visible;enable-background:accumulate" />
      <rect
         y="134.0381"
         x="402.95193"
         height="28.443666"
         width="14.221833"
         id="rect3799"
         style="color:#000000;fill:#f9f9f9;fill-opacity:1;fill-rule:nonzero;stroke:none;stroke-width:1;marker:none;visibility:visible;display:inline;overflow:visible;enable-background:accumulate" />
      <rect
         y="137.59148"
         x="405.56052"
         height="2.6921988"
         width="9.614996"
         id="rect3801"
         style="color:#000000;fill:#4d4d4d;fill-opacity:1;fill-rule:nonzero;stroke:none;stroke-width:1;marker:none;visibility:visible;display:inline;overflow:visible;enable-background:accumulate" />
    </g>
    <g
       id="g3856"
       transform="matrix(0.31358047,0,0,0.31304448,135.94527,37.65429)">
      <rect
         y="14.711824"
         x="401.52222"
         height="45.382782"
         width="153.07076"
         id="rect3854"
         style="color:#000000;fill:#808080;fill-opacity:1;fill-rule:nonzero;stroke:none;stroke-width:1;marker:none;visibility:visible;display:inline;overflow:visible;enable-background:accumulate" />
      <rect
         y="49.325809"
         x="401.52222"
         height="186.91553"
         width="152.30154"
         id="rect3808"
         style="color:#000000;fill:#4d4d4d;fill-opacity:1;fill-rule:nonzero;stroke:none;stroke-width:1;marker:none;visibility:visible;display:inline;overflow:visible;enable-background:accumulate" />
      <rect
         y="56.248608"
         x="409.21423"
         height="133.84074"
         width="64.61277"
         id="rect3810"
         style="color:#000000;fill:#b3b3b3;fill-opacity:1;fill-rule:nonzero;stroke:none;stroke-width:1;marker:none;visibility:visible;display:inline;overflow:visible;enable-background:accumulate" />
      <rect
         y="56.248608"
         x="480.74982"
         height="133.84074"
         width="64.61277"
         id="rect3810-7"
         style="color:#000000;fill:#b3b3b3;fill-opacity:1;fill-rule:nonzero;stroke:none;stroke-width:1;marker:none;visibility:visible;display:inline;overflow:visible;enable-background:accumulate" />
      <rect
         y="197.78134"
         x="409.98343"
         height="32.306385"
         width="136.14835"
         id="rect3830"
         style="color:#000000;fill:#b3b3b3;fill-opacity:1;fill-rule:nonzero;stroke:none;stroke-width:1;marker:none;visibility:visible;display:inline;overflow:visible;enable-background:accumulate" />
      <rect
         y="116.63078"
         x="483.44199"
         height="19.229992"
         width="6.1535974"
         id="rect3832"
         style="color:#000000;fill:#333333;fill-opacity:1;fill-rule:nonzero;stroke:none;stroke-width:1;marker:none;visibility:visible;display:inline;overflow:visible;enable-background:accumulate" />
      <rect
         y="116.63078"
         x="464.21201"
         height="19.229992"
         width="6.1535974"
         id="rect3832-4"
         style="color:#000000;fill:#333333;fill-opacity:1;fill-rule:nonzero;stroke:none;stroke-width:1;marker:none;visibility:visible;display:inline;overflow:visible;enable-background:accumulate" />
      <rect
         y="202.01195"
         x="465.36581"
         height="6.9227972"
         width="22.691391"
         id="rect3852"
         style="color:#000000;fill:#333333;fill-opacity:1;fill-rule:nonzero;stroke:none;stroke-width:1;marker:none;visibility:visible;display:inline;overflow:visible;enable-background:accumulate" />
    </g>
    <g
       id="g3939"
       transform="translate(-5.439063,-13.053751)">
      <g
         id="g3023"
         transform="matrix(0.57408039,0,0,0.59078083,198.5256,36.888768)">
        <rect
           style="color:#000000;fill:#b3b3b3;fill-opacity:1;fill-rule:nonzero;stroke:none;stroke-width:1;marker:none;visibility:visible;display:inline;overflow:visible;enable-background:accumulate"
           id="rect3866"
           width="142.30194"
           height="76.150764"
           x="289.98828"
           y="37.018612" />
        <rect
           style="color:#000000;fill:#4d4d4d;fill-opacity:1;fill-rule:nonzero;stroke:none;stroke-width:1;marker:none;visibility:visible;display:inline;overflow:visible;enable-background:accumulate"
           id="rect3866-0"
           width="142.30194"
           height="33.844784"
           x="290.37286"
           y="105.0928" />
        <rect
           style="color:#000000;fill:#cccccc;fill-opacity:1;fill-rule:nonzero;stroke:none;stroke-width:1;marker:none;visibility:visible;display:inline;overflow:visible;enable-background:accumulate"
           id="rect3935"
           width="105.51781"
           height="89.20063"
           x="327.43158"
           y="36.889111" />
        <rect
           style="color:#000000;fill:#782121;fill-opacity:1;fill-rule:nonzero;stroke:none;stroke-width:1;marker:none;visibility:visible;display:inline;overflow:visible;enable-background:accumulate"
           id="rect3886"
           width="16.153194"
           height="67.689568"
           x="275.83505"
           y="70.863396" />
        <rect
           style="color:#000000;fill:#c83737;fill-opacity:1;fill-rule:nonzero;stroke:none;stroke-width:1;marker:none;visibility:visible;display:inline;overflow:visible;enable-background:accumulate"
           id="rect3886-9"
           width="16.153194"
           height="67.689568"
           x="275.83505"
           y="20.09622" />
        <rect
           style="color:#000000;fill:#782121;fill-opacity:1;fill-rule:nonzero;stroke:none;stroke-width:1;marker:none;visibility:visible;display:inline;overflow:visible;enable-background:accumulate"
           id="rect3886-4"
           width="10.768796"
           height="67.689568"
           x="432.29022"
           y="71.632599" />
        <rect
           style="color:#000000;fill:#c83737;fill-opacity:1;fill-rule:nonzero;stroke:none;stroke-width:1;marker:none;visibility:visible;display:inline;overflow:visible;enable-background:accumulate"
           id="rect3886-9-8"
           width="10.768796"
           height="67.689568"
           x="432.29022"
           y="20.865427" />
        <rect
           style="color:#000000;fill:#333333;fill-opacity:1;fill-rule:nonzero;stroke:none;stroke-width:1;marker:none;visibility:visible;display:inline;overflow:visible;enable-background:accumulate"
           id="rect3929"
           width="24.411739"
           height="53.843979"
           x="295.37268"
           y="41.633816" />
        <rect
           style="color:#000000;fill:#999999;fill-opacity:1;fill-rule:nonzero;stroke:none;stroke-width:1;marker:none;visibility:visible;display:inline;overflow:visible;enable-background:accumulate"
           id="rect3937"
           width="104.66948"
           height="20.768391"
           x="327.67386"
           y="105.09279" />
      </g>
    </g>
    <g
       id="g3055"
       transform="matrix(0.11500779,-0.00997825,0.00997825,0.11500779,261.62544,59.641919)"
       style="stroke-width:3.29447627;stroke-miterlimit:4;stroke-dasharray:none">
      <g
         id="g3067"
         style="stroke-width:3.29447627;stroke-miterlimit:4;stroke-dasharray:none">
        <path
           sodipodi:type="arc"
           style="color:#000000;fill:#000000;fill-opacity:1;fill-rule:nonzero;stroke:#000000;stroke-width:9.51807785;stroke-linecap:round;stroke-linejoin:round;stroke-miterlimit:4;stroke-opacity:1;stroke-dasharray:none;stroke-dashoffset:0;marker:none;visibility:visible;display:inline;overflow:visible;enable-background:accumulate"
           id="path3020-2-1"
           sodipodi:cx="501.90771"
           sodipodi:cy="67.245285"
           sodipodi:rx="87.587814"
           sodipodi:ry="87.587814"
           d="m 589.49553,67.245285 c 0,48.373415 -39.2144,87.587815 -87.58782,87.587815 -48.37341,0 -87.58781,-39.2144 -87.58781,-87.587815 0,-48.373414 39.2144,-87.587814 87.58781,-87.587814 48.37342,0 87.58782,39.2144 87.58782,87.587814 z"
           transform="matrix(0.91011236,0,0,0.91011236,-330.12263,541.94483)" />
        <rect
           style="color:#000000;fill:#000000;stroke:#000000;stroke-width:8.66252041;stroke-linecap:round;stroke-linejoin:round;stroke-miterlimit:4;stroke-opacity:1;stroke-dasharray:none;stroke-dashoffset:0;marker:none;visibility:visible;display:inline;overflow:visible;enable-background:accumulate"
           id="rect3022-7-7"
           width="24.603319"
           height="110.22287"
           x="199.44548"
           y="649.15576"
           inkscape:transform-center-x="-4.771558"
           inkscape:transform-center-y="-42.341108"
           transform="matrix(0.98961252,0.14376046,-0.14376046,0.98961252,0,0)" />
        <rect
           style="color:#000000;fill:#000000;stroke:#000000;stroke-width:8.66691589;stroke-linecap:round;stroke-linejoin:round;stroke-miterlimit:4;stroke-opacity:1;stroke-dasharray:none;stroke-dashoffset:0;marker:none;visibility:visible;display:inline;overflow:visible;enable-background:accumulate"
           id="rect3022-1-7-4-6-4"
           width="15.69451"
           height="68.06591"
           x="-75.293167"
           y="712.159"
           transform="matrix(0.97688019,-0.21378752,0.2575563,0.96626329,0,0)"
           inkscape:transform-center-x="-6.6620371"
           inkscape:transform-center-y="27.133669" />
        <rect
           style="color:#000000;fill:#000000;fill-opacity:1;fill-rule:nonzero;stroke:#000000;stroke-width:8.67668629;stroke-linecap:round;stroke-linejoin:round;stroke-miterlimit:4;stroke-opacity:1;stroke-dasharray:none;stroke-dashoffset:0;marker:none;visibility:visible;display:inline;overflow:visible;enable-background:accumulate"
           id="rect3022-1-8-14-0"
           width="18.869402"
           height="80.933762"
           x="-187.87917"
           y="774.48792"
           transform="matrix(-0.99972908,-0.02327609,-0.10389003,0.99458879,0,0)"
           inkscape:transform-center-x="2.5736402"
           inkscape:transform-center-y="31.282837" />
        <rect
           style="color:#000000;fill:#000000;stroke:#000000;stroke-width:8.66691589;stroke-linecap:round;stroke-linejoin:round;stroke-miterlimit:4;stroke-opacity:1;stroke-dasharray:none;stroke-dashoffset:0;marker:none;visibility:visible;display:inline;overflow:visible;enable-background:accumulate"
           id="rect3022-1-7-4-5-2-9"
           width="15.69451"
           height="68.06591"
           x="-265.89929"
           y="745.21063"
           transform="matrix(0.89301504,-0.45002683,0.48977985,0.87184614,0,0)"
           inkscape:transform-center-x="-13.201018"
           inkscape:transform-center-y="24.624191" />
        <rect
           style="color:#000000;fill:#000000;stroke:#000000;stroke-width:8.66691589;stroke-linecap:round;stroke-linejoin:round;stroke-miterlimit:4;stroke-opacity:1;stroke-dasharray:none;stroke-dashoffset:0;marker:none;visibility:visible;display:inline;overflow:visible;enable-background:accumulate"
           id="rect3022-1-7-4-51-3-4"
           width="15.69451"
           height="68.06591"
           x="435.41757"
           y="532.89655"
           transform="matrix(0.84272822,0.53833925,-0.49984806,0.86611311,0,0)"
           inkscape:transform-center-x="14.440174"
           inkscape:transform-center-y="23.918624" />
        <rect
           style="color:#000000;fill:#000000;stroke:#000000;stroke-width:8.66691589;stroke-linecap:round;stroke-linejoin:round;stroke-miterlimit:4;stroke-opacity:1;stroke-dasharray:none;stroke-dashoffset:0;marker:none;visibility:visible;display:inline;overflow:visible;enable-background:accumulate"
           id="rect3022-1-7-4-51-7-2-8"
           width="15.69451"
           height="68.06591"
           x="222.20694"
           y="713.69568"
           transform="matrix(0.96807548,0.25065887,-0.20681549,0.97837996,0,0)"
           inkscape:transform-center-x="6.3164446"
           inkscape:transform-center-y="27.216203" />
        <rect
           style="color:#000000;fill:#000000;fill-opacity:1;fill-rule:nonzero;stroke:#000000;stroke-width:8.67668629;stroke-linecap:round;stroke-linejoin:round;stroke-miterlimit:4;stroke-opacity:1;stroke-dasharray:none;stroke-dashoffset:0;marker:none;visibility:visible;display:inline;overflow:visible;enable-background:accumulate"
           id="rect3022-1-8-1-16-2"
           width="18.869402"
           height="80.933762"
           x="69.025269"
           y="771.94489"
           transform="matrix(-0.95189806,0.30641488,0.22858584,0.97352376,0,0)"
           inkscape:transform-center-x="-7.8452239"
           inkscape:transform-center-y="30.392247" />
        <rect
           style="color:#000000;fill:#000000;fill-opacity:1;fill-rule:nonzero;stroke:#000000;stroke-width:8.67668629;stroke-linecap:round;stroke-linejoin:round;stroke-miterlimit:4;stroke-opacity:1;stroke-dasharray:none;stroke-dashoffset:0;marker:none;visibility:visible;display:inline;overflow:visible;enable-background:accumulate"
           id="rect3022-1-8-1-1-8-4"
           width="18.869402"
           height="80.933762"
           x="-129.84145"
           y="861.82751"
           transform="matrix(-0.99668813,0.0813189,6.091634e-4,0.99999981,0,0)"
           inkscape:transform-center-x="-0.70936515"
           inkscape:transform-center-y="31.380465" />
        <rect
           style="color:#000000;fill:#000000;fill-opacity:1;fill-rule:nonzero;stroke:#000000;stroke-width:8.67668629;stroke-linecap:round;stroke-linejoin:round;stroke-miterlimit:4;stroke-opacity:1;stroke-dasharray:none;stroke-dashoffset:0;marker:none;visibility:visible;display:inline;overflow:visible;enable-background:accumulate"
           id="rect3022-1-8-5-5-5"
           width="18.869402"
           height="80.933762"
           x="-321.89774"
           y="824.55151"
           transform="matrix(-0.98281023,-0.18461866,-0.26334067,0.9647029,0,0)"
           inkscape:transform-center-x="7.5979855"
           inkscape:transform-center-y="30.455043" />
      </g>
    </g>
  </g>
</svg>
